[GIN-debug] [WARNING] Running in "debug" mode. Switch to "release" mode in production.
 - using env:	export GIN_MODE=release
 - using code:	gin.SetMode(gin.ReleaseMode)

[GIN-debug] POST   /login                    --> GinSistemPerpustakaan/controllers.(*UserController).loginUser-fm (3 handlers)
[GIN-debug] POST   /user                     --> GinSistemPerpustakaan/controllers.(*UserController).createUser-fm (3 handlers)
[GIN-debug] GET    /user                     --> GinSistemPerpustakaan/controllers.(*UserController).getAll-fm (3 handlers)
[GIN-debug] GET    /user/:id                 --> GinSistemPerpustakaan/controllers.(*UserController).getByID-fm (3 handlers)
[GIN-debug] PUT    /user/:id                 --> GinSistemPerpustakaan/controllers.(*UserController).updateData-fm (3 handlers)
[GIN-debug] DELETE /user/:id                 --> GinSistemPerpustakaan/controllers.(*UserController).delete-fm (3 handlers)
[GIN-debug] POST   /book                     --> GinSistemPerpustakaan/controllers.(*BookController).insertData-fm (3 handlers)
[GIN-debug] GET    /book                     --> GinSistemPerpustakaan/controllers.(*BookController).getAll-fm (3 handlers)
[GIN-debug] GET    /book/:id                 --> GinSistemPerpustakaan/controllers.(*BookController).getBookByID-fm (3 handlers)
[GIN-debug] PUT    /book/:id                 --> GinSistemPerpustakaan/controllers.(*BookController).updateData-fm (3 handlers)
[GIN-debug] DELETE /book/:id                 --> GinSistemPerpustakaan/controllers.(*BookController).delete-fm (3 handlers)
[GIN-debug] GET    /detail/book/:id          --> GinSistemPerpustakaan/controllers.(*BookDetailController).getAllBookDetail-fm (3 handlers)
[GIN-debug] Listening and serving HTTP on :9093
::1 - [14 Apr 20 11:33 +07] DELETE /book/3 200 392.8352ms 
::1 - [14 Apr 20 11:33 +07] GET /detail/book/3 500 18.9809ms 
::1 - [14 Apr 20 11:33 +07] GET /book 200 996.1µs 
::1 - [14 Apr 20 11:38 +07] GET /book 200 1.9924ms 
::1 - [14 Apr 20 11:44 +07] GET /book/1 200 2.9926ms 
::1 - [14 Apr 20 11:48 +07] PUT /book/1 200 22.8721ms 
::1 - [14 Apr 20 12:03 +07] PUT /book/1 200 16.0962ms 
